R in 3 Months: Week 7 (Tidy Data)
…
---

## Is this dataset wide or long?

`wakefield_dataset`

```
## # A tibble: 100 × 4
##    name        age gender religion 
##    <chr>     <int> <chr>  <chr>    
##  1 Brielyn      21 Female None     
##  2 Veryl        37 Male   Christian
##  3 Anaum        36 Female Christian
##  4 Kadince      69 Male   Muslim   
##  5 Altay        75 Male   Hindu    
##  6 Graceanne    21 Female Christian
##  7 Suann        80 Male   None     
##  8 Adrika       62 Female Christian
##  9 Clarcie      79 Male   Jewish   
## 10 Nemo         28 Male   Christian
## # ℹ 90 more rows
```

---

## Is this dataset wide or long?

`tidycensus`

```
## # A tibble: 108 × 5
##    GEOID NAME                     variable              estimate   moe
##    <chr> <chr>                    <chr>                    <dbl> <dbl>
##  1 41001 Baker County, Oregon     n_in_poverty_under_18      494   204
##  2 41001 Baker County, Oregon     n_in_poverty_male          907   230
##  3 41001 Baker County, Oregon     n_in_poverty_female       1014   222
##  4 41003 Benton County, Oregon    n_in_poverty_under_18     2042   408
##  5 41003 Benton County, Oregon    n_in_poverty_male         8439   587
##  6 41003 Benton County, Oregon    n_in_poverty_female       7880   599
##  7 41005 Clackamas County, Oregon n_in_poverty_under_18     8002   982
##  8 41005 Clackamas County, Oregon n_in_poverty_male        14369  1199
##  9 41005 Clackamas County, Oregon n_in_poverty_female      18234  1139
## 10 41007 Clatsop County, Oregon   n_in_poverty_under_18      573   206
## # ℹ 98 more rows
```

---

## Is this dataset wide or long?

`tidycensus v2`

```
## # A tibble: 36 × 8
##    GEOID NAME         n_in_poverty_maleE n_in_poverty_maleM n_in_poverty_femaleE
##    <chr> <chr>                     <dbl>              <dbl>                <dbl>
##  1 41039 Lane County…              29634               1657                34823
##  2 41067 Washington …              23520               1382                28586
##  3 41007 Clatsop Cou…               1818                337                 2046
##  4 41029 Jackson Cou…              14802               1097                18432
##  5 41023 Grant Count…                558                139                  725
##  6 41005 Clackamas C…              14369               1199                18234
##  7 41057 Tillamook C…               1614                298                 1751
##  8 41033 Josephine C…               7488                797                 7896
##  9 41059 Umatilla Co…               5296                700                 7630
## 10 41009 Columbia Co…               2497                404                 3431
## # ℹ 26 more rows
## # ℹ 3 more variables: n_in_poverty_femaleM <dbl>, n_in_poverty_under_18E <dbl>,
## #   n_in_poverty_under_18M <dbl>
```
…
